37.7;1;0;1;1;1;1;1
36.2;1;1;0;0;0;0;1
41.5;1;0;0;1;0;1;0
37.5;1;1;0;0;1;0;1
40.1;0;0;0;0;1;0;0
39.0;1;0;0;1;0;1;0
36.2;1;0;1;1;1;1;1
37.4;1;1;0;1;1;0;1
40.4;0;0;0;0;1;0;0
40.9;0;0;0;0;1;0;0
36.7;1;1;0;0;0;0;1
37.9;1;1;0;0;1;0;1
39.4;1;0;0;1;0;1;0
37.0;1;1;0;1;1;0;1
40.0;0;0;1;0;1;1;0
38.3;1;0;0;1;0;1;0
37.8;1;1;0;1;1;0;1
37.5;1;1;0;1;1;0;1
40.6;0;0;1;0;1;1;0
40.6;0;0;0;0;0;0;0
40.0;1;0;0;1;0;1;0
38.7;1;0;0;1;0;1;0
37.5;1;1;0;1;1;0;1
37.8;1;1;0;0;0;0;1
37.9;1;0;1;1;1;1;1
37.6;1;1;0;0;1;0;1
37.3;1;1;0;0;0;0;1
36.8;1;1;0;0;0;0;1
40.2;0;0;1;0;1;1;0
41.4;1;0;0;1;0;1;0
40.7;1;0;0;1;0;1;0
36.6;1;1;0;0;0;0;1
41.2;1;1;1;1;1;1;1
40.4;0;0;1;0;1;1;0
36.0;1;0;1;1;1;1;1
40.7;1;1;1;1;1;1;1
36.7;1;0;1;1;1;1;1
37.1;1;1;0;0;0;0;1
41.0;0;0;0;0;0;0;0
40.0;1;1;1;1;1;1;1
41.5;1;1;1;1;1;1;1
37.0;1;0;1;1;1;1;1
40.0;0;0;1;0;1;1;0
40.7;0;0;0;0;0;0;0
40.0;0;0;0;0;0;0;0
40.0;0;0;0;0;0;0;0
38.5;1;0;0;1;0;1;0
41.2;1;0;0;1;0;1;0
40.0;1;1;1;1;1;1;1
37.9;1;1;0;0;1;0;1
37.2;1;0;1;1;1;1;1
40.7;0;0;0;0;1;0;0
36.6;1;0;1;1;1;1;1
37.7;1;1;0;0;1;0;1
35.5;1;0;1;1;1;1;1
38.1;1;0;0;1;0;1;0
40.0;0;0;0;0;1;0;0
37.5;1;1;0;0;0;0;1
41.5;0;0;1;0;1;1;0
41.1;0;0;1;0;1;1;0
37.0;1;1;0;0;0;0;1
40.2;0;0;0;0;0;0;0
36.6;1;1;0;0;0;0;1
41.5;1;0;0;1;0;1;0
39.7;1;0;0;1;0;1;0
41.1;0;0;0;0;0;0;0
35.9;1;1;0;0;0;0;1
41.2;0;0;0;0;0;0;0
40.3;1;0;0;1;0;1;0
40.4;1;1;1;1;1;1;1
41.2;0;0;1;0;1;1;0
41.0;0;0;1;0;1;1;0
40.6;1;1;1;1;1;1;1
36.7;1;0;1;1;1;1;1
40.4;0;0;0;0;1;0;0
37.0;1;1;0;0;0;0;1
37.2;1;1;0;0;1;0;1
37.7;1;1;0;1;1;0;1
40.9;0;0;0;0;1;0;0
37.0;1;1;0;0;1;0;1
40.5;0;0;0;0;1;0;0
41.1;1;0;0;1;0;1;0
37.5;1;0;1;1;1;1;1
40.4;0;0;0;0;0;0;0
37.1;1;0;1;1;1;1;1
37.9;1;1;0;0;0;0;1
40.7;0;0;1;0;1;1;0
41.1;0;0;0;0;1;0;0
38.9;1;0;0;1;0;1;0
37.0;1;1;0;0;0;0;1
41.0;1;1;1;1;1;1;1
40.9;1;0;0;1;0;1;0
41.1;1;1;1;1;1;1;1
41.0;1;0;0;1;0;1;0
35.9;1;0;1;1;1;1;1
41.3;0;0;0;0;1;0;0
38.0;1;0;0;1;0;1;0
38.0;1;0;0;1;0;1;0
36.3;1;1;0;0;0;0;1
40.8;1;0;0;1;0;1;0
