-0.630750;-0.635898;-1.417745;0.714143;1.035616;1.193580;1.100000;0
-0.793874;-0.635898;0.698292;-1.386277;-0.955953;-0.829437;-0.900000;0
1.381124;-0.635898;0.698292;0.714143;-0.955953;1.193580;-0.900000;1
-0.902624;-0.635898;0.698292;-1.386277;-0.955953;-0.829437;-0.900000;0
-0.576375;-0.635898;-1.417745;0.714143;1.035616;-0.829437;1.100000;0
-1.881374;-0.635898;0.698292;-1.386277;-0.955953;-0.829437;-0.900000;0
-0.576375;-0.635898;-1.417745;0.714143;1.035616;-0.829437;1.100000;0
0.565500;1.556854;0.698292;0.714143;1.035616;1.193580;1.100000;1
-0.576375;-0.635898;-1.417745;0.714143;1.035616;1.193580;1.100000;0
0.946124;1.556854;0.698292;-1.386277;1.035616;-0.829437;-0.900000;1
1.217999;1.556854;0.698292;-1.386277;1.035616;-0.829437;-0.900000;1
0.782999;1.556854;0.698292;0.714143;1.035616;-0.829437;1.100000;1
-1.228874;-0.635898;0.698292;-1.386277;-0.955953;-0.829437;-0.900000;0
0.674249;1.556854;0.698292;-1.386277;1.035616;-0.829437;-0.900000;1
0.891749;1.556854;0.698292;-1.386277;1.035616;-0.829437;-0.900000;1
-0.576375;-0.635898;0.698292;-1.386277;-0.955953;-0.829437;-0.900000;0
-0.250125;-0.635898;0.698292;0.714143;-0.955953;1.193580;-0.900000;1
-1.500749;-0.635898;0.698292;-1.386277;-0.955953;-0.829437;-0.900000;0
1.000499;-0.635898;0.698292;0.714143;-0.955953;1.193580;-0.900000;1
-1.065749;-0.635898;-1.417745;0.714143;1.035616;-0.829437;1.100000;0
-1.011374;-0.635898;0.698292;-1.386277;-0.955953;-0.829437;-0.900000;0
1.054874;-0.635898;0.698292;0.714143;-0.955953;1.193580;-0.900000;1
-0.467625;-0.635898;0.698292;0.714143;-0.955953;1.193580;-0.900000;1
1.109249;-0.635898;0.698292;0.714143;-0.955953;1.193580;-0.900000;1
1.109249;1.556854;0.698292;0.714143;1.035616;1.193580;1.100000;1
1.381124;1.556854;0.698292;-1.386277;1.035616;-0.829437;-0.900000;1
-1.609499;-0.635898;-1.417745;0.714143;1.035616;1.193580;1.100000;0
-0.522000;-0.635898;0.698292;0.714143;-0.955953;1.193580;-0.900000;1
0.891749;1.556854;0.698292;0.714143;1.035616;1.193580;1.100000;1
-1.065749;-0.635898;-1.417745;0.714143;1.035616;1.193580;1.100000;0
-1.065749;-0.635898;-1.417745;0.714143;1.035616;1.193580;1.100000;0
1.163624;-0.635898;0.698292;0.714143;-0.955953;1.193580;-0.900000;1
0.782999;1.556854;0.698292;0.714143;1.035616;1.193580;1.100000;1
0.946124;1.556854;0.698292;0.714143;1.035616;1.193580;1.100000;1
-0.902624;-0.635898;-1.417745;0.714143;-0.955953;-0.829437;1.100000;0
1.163624;-0.635898;-1.417745;-1.386277;-0.955953;-0.829437;-0.900000;0
-1.283249;-0.635898;0.698292;-1.386277;-0.955953;-0.829437;-0.900000;0
0.565500;-0.635898;0.698292;0.714143;-0.955953;1.193580;-0.900000;1
0.946124;1.556854;0.698292;0.714143;1.035616;-0.829437;1.100000;1
0.402375;-0.635898;0.698292;0.714143;-0.955953;1.193580;-0.900000;1
-0.685124;-0.635898;0.698292;-1.386277;-0.955953;-0.829437;-0.900000;0
0.239250;-0.635898;0.698292;0.714143;-0.955953;1.193580;-0.900000;1
0.946124;-0.635898;-1.417745;-1.386277;-0.955953;-0.829437;-0.900000;0
-1.174499;-0.635898;-1.417745;0.714143;1.035616;1.193580;1.100000;0
-0.739499;-0.635898;-1.417745;0.714143;1.035616;1.193580;1.100000;0
0.674249;1.556854;0.698292;0.714143;1.035616;1.193580;1.100000;1
-1.065749;-0.635898;-1.417745;0.714143;1.035616;-0.829437;1.100000;0
0.946124;-0.635898;0.698292;0.714143;-0.955953;1.193580;-0.900000;1
1.054874;1.556854;0.698292;0.714143;1.035616;-0.829437;1.100000;1
-0.522000;-0.635898;0.698292;0.714143;-0.955953;1.193580;-0.900000;1
-0.848249;-0.635898;0.698292;-1.386277;-0.955953;-0.829437;-0.900000;0
-0.576375;-0.635898;-1.417745;0.714143;-0.955953;-0.829437;1.100000;0
-0.793874;-0.635898;-1.417745;0.714143;1.035616;-0.829437;1.100000;0
1.109249;1.556854;0.698292;-1.386277;1.035616;-0.829437;-0.900000;1
1.217999;1.556854;0.698292;0.714143;1.035616;1.193580;1.100000;1
-0.902624;-0.635898;-1.417745;0.714143;1.035616;1.193580;1.100000;0
-0.630750;-0.635898;-1.417745;0.714143;-0.955953;-0.829437;1.100000;0
-1.663874;-0.635898;-1.417745;0.714143;1.035616;1.193580;1.100000;0
1.381124;-0.635898;0.698292;0.714143;-0.955953;1.193580;-0.900000;1
0.619875;1.556854;0.698292;0.714143;1.035616;-0.829437;1.100000;1
-0.685124;-0.635898;-1.417745;0.714143;1.035616;-0.829437;1.100000;0
-1.500749;-0.635898;-1.417745;0.714143;1.035616;1.193580;1.100000;0
0.565500;1.556854;0.698292;0.714143;1.035616;-0.829437;1.100000;1
0.782999;1.556854;0.698292;-1.386277;1.035616;-0.829437;-0.900000;1
1.109249;-0.635898;-1.417745;-1.386277;-0.955953;-0.829437;-0.900000;0
-0.032625;-0.635898;0.698292;0.714143;-0.955953;1.193580;-0.900000;1
1.163624;1.556854;0.698292;-1.386277;1.035616;-0.829437;-0.900000;1
0.891749;-0.635898;-1.417745;-1.386277;-0.955953;-0.829437;-0.900000;0
1.217999;-0.635898;-1.417745;-1.386277;-0.955953;-0.829437;-0.900000;0
-1.609499;-0.635898;0.698292;-1.386277;-0.955953;-0.829437;-0.900000;0
0.782999;1.556854;0.698292;0.714143;1.035616;-0.829437;1.100000;1
-1.228874;-0.635898;0.698292;-1.386277;-0.955953;-0.829437;-0.900000;0
-0.793874;-0.635898;0.698292;-1.386277;-0.955953;-0.829437;-0.900000;0
1.163624;1.556854;0.698292;0.714143;1.035616;1.193580;1.100000;1
-0.739499;-0.635898;-1.417745;0.714143;1.035616;-0.829437;1.100000;0
-0.956999;-0.635898;-1.417745;0.714143;-0.955953;-0.829437;1.100000;0
0.782999;-0.635898;-1.417745;-1.386277;-0.955953;-0.829437;-0.900000;0
-0.739499;-0.635898;-1.417745;0.714143;1.035616;-0.829437;1.100000;0
-1.609499;-0.635898;0.698292;-1.386277;-0.955953;-0.829437;-0.900000;0
1.326749;-0.635898;0.698292;0.714143;-0.955953;1.193580;-0.900000;1
-1.065749;-0.635898;-1.417745;0.714143;-0.955953;-0.829437;1.100000;0
-0.956999;-0.635898;0.698292;-1.386277;-0.955953;-0.829437;-0.900000;0
0.021750;-0.635898;0.698292;0.714143;-0.955953;1.193580;-0.900000;1
0.837374;1.556854;0.698292;0.714143;1.035616;-0.829437;1.100000;1
1.272374;1.556854;0.698292;0.714143;1.035616;-0.829437;1.100000;1
-1.283249;-0.635898;-1.417745;0.714143;1.035616;1.193580;1.100000;0
1.217999;-0.635898;0.698292;0.714143;-0.955953;1.193580;-0.900000;1
-1.663874;-0.635898;0.698292;-1.386277;-0.955953;-0.829437;-0.900000;0
1.163624;1.556854;0.698292;0.714143;1.035616;-0.829437;1.100000;1
0.565500;1.556854;0.698292;0.714143;1.035616;1.193580;1.100000;1
-0.141375;-0.635898;0.698292;0.714143;-0.955953;1.193580;-0.900000;1
1.054874;1.556854;0.698292;0.714143;1.035616;-0.829437;1.100000;1
-0.793874;-0.635898;-1.417745;0.714143;-0.955953;-0.829437;1.100000;0
0.565500;1.556854;0.698292;-1.386277;1.035616;-0.829437;-0.900000;1
-0.358875;-0.635898;0.698292;0.714143;-0.955953;1.193580;-0.900000;1
1.381124;-0.635898;-1.417745;-1.386277;-0.955953;-0.829437;-0.900000;0
-1.011374;-0.635898;-1.417745;0.714143;-0.955953;-0.829437;1.100000;0
0.728624;-0.635898;0.698292;0.714143;-0.955953;1.193580;-0.900000;1
-1.065749;-0.635898;0.698292;-1.386277;-0.955953;-0.829437;-0.900000;0
0.565500;1.556854;0.698292;-1.386277;1.035616;-0.829437;-0.900000;1
