-6.307500e-01;-6.358980e-01;-1.417745e+00;7.141430e-01;1.035616e+00;1.193580e+00;1.100000e+00;0
-7.938740e-01;-6.358980e-01;6.982920e-01;-1.386277e+00;-9.559530e-01;-8.294370e-01;-9.000000e-01;0
1.381124e+00;-6.358980e-01;6.982920e-01;7.141430e-01;-9.559530e-01;1.193580e+00;-9.000000e-01;1
-9.026240e-01;-6.358980e-01;6.982920e-01;-1.386277e+00;-9.559530e-01;-8.294370e-01;-9.000000e-01;0
-5.763750e-01;-6.358980e-01;-1.417745e+00;7.141430e-01;1.035616e+00;-8.294370e-01;1.100000e+00;0
-1.881374e+00;-6.358980e-01;6.982920e-01;-1.386277e+00;-9.559530e-01;-8.294370e-01;-9.000000e-01;0
-5.763750e-01;-6.358980e-01;-1.417745e+00;7.141430e-01;1.035616e+00;-8.294370e-01;1.100000e+00;0
-5.763750e-01;-6.358980e-01;-1.417745e+00;7.141430e-01;1.035616e+00;1.193580e+00;1.100000e+00;0
-1.228874e+00;-6.358980e-01;6.982920e-01;-1.386277e+00;-9.559530e-01;-8.294370e-01;-9.000000e-01;0
-5.763750e-01;-6.358980e-01;6.982920e-01;-1.386277e+00;-9.559530e-01;-8.294370e-01;-9.000000e-01;0
-2.501250e-01;-6.358980e-01;6.982920e-01;7.141430e-01;-9.559530e-01;1.193580e+00;-9.000000e-01;1
-1.500749e+00;-6.358980e-01;6.982920e-01;-1.386277e+00;-9.559530e-01;-8.294370e-01;-9.000000e-01;0
1.000499e+00;-6.358980e-01;6.982920e-01;7.141430e-01;-9.559530e-01;1.193580e+00;-9.000000e-01;1
-1.065749e+00;-6.358980e-01;-1.417745e+00;7.141430e-01;1.035616e+00;-8.294370e-01;1.100000e+00;0
-1.011374e+00;-6.358980e-01;6.982920e-01;-1.386277e+00;-9.559530e-01;-8.294370e-01;-9.000000e-01;0
1.054874e+00;-6.358980e-01;6.982920e-01;7.141430e-01;-9.559530e-01;1.193580e+00;-9.000000e-01;1
-4.676250e-01;-6.358980e-01;6.982920e-01;7.141430e-01;-9.559530e-01;1.193580e+00;-9.000000e-01;1
1.109249e+00;-6.358980e-01;6.982920e-01;7.141430e-01;-9.559530e-01;1.193580e+00;-9.000000e-01;1
-1.609499e+00;-6.358980e-01;-1.417745e+00;7.141430e-01;1.035616e+00;1.193580e+00;1.100000e+00;0
-5.220000e-01;-6.358980e-01;6.982920e-01;7.141430e-01;-9.559530e-01;1.193580e+00;-9.000000e-01;1
-1.065749e+00;-6.358980e-01;-1.417745e+00;7.141430e-01;1.035616e+00;1.193580e+00;1.100000e+00;0
-1.065749e+00;-6.358980e-01;-1.417745e+00;7.141430e-01;1.035616e+00;1.193580e+00;1.100000e+00;0
1.163624e+00;-6.358980e-01;6.982920e-01;7.141430e-01;-9.559530e-01;1.193580e+00;-9.000000e-01;1
-9.026240e-01;-6.358980e-01;-1.417745e+00;7.141430e-01;-9.559530e-01;-8.294370e-01;1.100000e+00;0
1.163624e+00;-6.358980e-01;-1.417745e+00;-1.386277e+00;-9.559530e-01;-8.294370e-01;-9.000000e-01;0
-1.283249e+00;-6.358980e-01;6.982920e-01;-1.386277e+00;-9.559530e-01;-8.294370e-01;-9.000000e-01;0
5.655000e-01;-6.358980e-01;6.982920e-01;7.141430e-01;-9.559530e-01;1.193580e+00;-9.000000e-01;1
4.023750e-01;-6.358980e-01;6.982920e-01;7.141430e-01;-9.559530e-01;1.193580e+00;-9.000000e-01;1
-6.851240e-01;-6.358980e-01;6.982920e-01;-1.386277e+00;-9.559530e-01;-8.294370e-01;-9.000000e-01;0
2.392500e-01;-6.358980e-01;6.982920e-01;7.141430e-01;-9.559530e-01;1.193580e+00;-9.000000e-01;1
9.461240e-01;-6.358980e-01;-1.417745e+00;-1.386277e+00;-9.559530e-01;-8.294370e-01;-9.000000e-01;0
-1.174499e+00;-6.358980e-01;-1.417745e+00;7.141430e-01;1.035616e+00;1.193580e+00;1.100000e+00;0
-7.394990e-01;-6.358980e-01;-1.417745e+00;7.141430e-01;1.035616e+00;1.193580e+00;1.100000e+00;0
-1.065749e+00;-6.358980e-01;-1.417745e+00;7.141430e-01;1.035616e+00;-8.294370e-01;1.100000e+00;0
9.461240e-01;-6.358980e-01;6.982920e-01;7.141430e-01;-9.559530e-01;1.193580e+00;-9.000000e-01;1
-5.220000e-01;-6.358980e-01;6.982920e-01;7.141430e-01;-9.559530e-01;1.193580e+00;-9.000000e-01;1
-8.482490e-01;-6.358980e-01;6.982920e-01;-1.386277e+00;-9.559530e-01;-8.294370e-01;-9.000000e-01;0
-5.763750e-01;-6.358980e-01;-1.417745e+00;7.141430e-01;-9.559530e-01;-8.294370e-01;1.100000e+00;0
-7.938740e-01;-6.358980e-01;-1.417745e+00;7.141430e-01;1.035616e+00;-8.294370e-01;1.100000e+00;0
-9.026240e-01;-6.358980e-01;-1.417745e+00;7.141430e-01;1.035616e+00;1.193580e+00;1.100000e+00;0
-6.307500e-01;-6.358980e-01;-1.417745e+00;7.141430e-01;-9.559530e-01;-8.294370e-01;1.100000e+00;0
-1.663874e+00;-6.358980e-01;-1.417745e+00;7.141430e-01;1.035616e+00;1.193580e+00;1.100000e+00;0
1.381124e+00;-6.358980e-01;6.982920e-01;7.141430e-01;-9.559530e-01;1.193580e+00;-9.000000e-01;1
-6.851240e-01;-6.358980e-01;-1.417745e+00;7.141430e-01;1.035616e+00;-8.294370e-01;1.100000e+00;0
-1.500749e+00;-6.358980e-01;-1.417745e+00;7.141430e-01;1.035616e+00;1.193580e+00;1.100000e+00;0
1.109249e+00;-6.358980e-01;-1.417745e+00;-1.386277e+00;-9.559530e-01;-8.294370e-01;-9.000000e-01;0
-3.262500e-02;-6.358980e-01;6.982920e-01;7.141430e-01;-9.559530e-01;1.193580e+00;-9.000000e-01;1
8.917490e-01;-6.358980e-01;-1.417745e+00;-1.386277e+00;-9.559530e-01;-8.294370e-01;-9.000000e-01;0
1.217999e+00;-6.358980e-01;-1.417745e+00;-1.386277e+00;-9.559530e-01;-8.294370e-01;-9.000000e-01;0
-1.609499e+00;-6.358980e-01;6.982920e-01;-1.386277e+00;-9.559530e-01;-8.294370e-01;-9.000000e-01;0
-1.228874e+00;-6.358980e-01;6.982920e-01;-1.386277e+00;-9.559530e-01;-8.294370e-01;-9.000000e-01;0
-7.938740e-01;-6.358980e-01;6.982920e-01;-1.386277e+00;-9.559530e-01;-8.294370e-01;-9.000000e-01;0
-7.394990e-01;-6.358980e-01;-1.417745e+00;7.141430e-01;1.035616e+00;-8.294370e-01;1.100000e+00;0
-9.569990e-01;-6.358980e-01;-1.417745e+00;7.141430e-01;-9.559530e-01;-8.294370e-01;1.100000e+00;0
7.829990e-01;-6.358980e-01;-1.417745e+00;-1.386277e+00;-9.559530e-01;-8.294370e-01;-9.000000e-01;0
-7.394990e-01;-6.358980e-01;-1.417745e+00;7.141430e-01;1.035616e+00;-8.294370e-01;1.100000e+00;0
-1.609499e+00;-6.358980e-01;6.982920e-01;-1.386277e+00;-9.559530e-01;-8.294370e-01;-9.000000e-01;0
1.326749e+00;-6.358980e-01;6.982920e-01;7.141430e-01;-9.559530e-01;1.193580e+00;-9.000000e-01;1
-1.065749e+00;-6.358980e-01;-1.417745e+00;7.141430e-01;-9.559530e-01;-8.294370e-01;1.100000e+00;0
-9.569990e-01;-6.358980e-01;6.982920e-01;-1.386277e+00;-9.559530e-01;-8.294370e-01;-9.000000e-01;0
2.175000e-02;-6.358980e-01;6.982920e-01;7.141430e-01;-9.559530e-01;1.193580e+00;-9.000000e-01;1
-1.283249e+00;-6.358980e-01;-1.417745e+00;7.141430e-01;1.035616e+00;1.193580e+00;1.100000e+00;0
1.217999e+00;-6.358980e-01;6.982920e-01;7.141430e-01;-9.559530e-01;1.193580e+00;-9.000000e-01;1
-1.663874e+00;-6.358980e-01;6.982920e-01;-1.386277e+00;-9.559530e-01;-8.294370e-01;-9.000000e-01;0
-1.413750e-01;-6.358980e-01;6.982920e-01;7.141430e-01;-9.559530e-01;1.193580e+00;-9.000000e-01;1
-7.938740e-01;-6.358980e-01;-1.417745e+00;7.141430e-01;-9.559530e-01;-8.294370e-01;1.100000e+00;0
-3.588750e-01;-6.358980e-01;6.982920e-01;7.141430e-01;-9.559530e-01;1.193580e+00;-9.000000e-01;1
1.381124e+00;-6.358980e-01;-1.417745e+00;-1.386277e+00;-9.559530e-01;-8.294370e-01;-9.000000e-01;0
-1.011374e+00;-6.358980e-01;-1.417745e+00;7.141430e-01;-9.559530e-01;-8.294370e-01;1.100000e+00;0
7.286240e-01;-6.358980e-01;6.982920e-01;7.141430e-01;-9.559530e-01;1.193580e+00;-9.000000e-01;1
-1.065749e+00;-6.358980e-01;6.982920e-01;-1.386277e+00;-9.559530e-01;-8.294370e-01;-9.000000e-01;0
